<?xml version="1.0" encoding="iso-8859-1"?>
<!-- Generator: Adobe Illustrator 16.0.0, SVG Export Plug-In . SVG Version: 6.00 Build 0)  -->
<!DOCTYPE svg PUBLIC "-//W3C//DTD SVG 1.1//EN" "http://www.w3.org/Graphics/SVG/1.1/DTD/svg11.dtd">
<svg xmlns="http://www.w3.org/2000/svg" xmlns:xlink="http://www.w3.org/1999/xlink" version="1.1" id="Capa_1" x="0px" y="0px" width="12px" height="12px" viewBox="0 0 640 512" style="enable-background:new 0 0 487.23 487.23;" xml:space="preserve">
	 <path
             fill="currentColor"
             d="M219.845 98.213l27.184-27.167C262.04 56.036 288 66.556 288 88.017v62.623l-68.155-52.427zm195.889 150.684c-2.233-30.88-18.956-58.492-45.706-74.842-13.987-8.547-31.941-5.071-41.824 7.51l87.53 67.332zM436.665 64.74C500.967 104.063 544 174.983 544 256a223.67 223.67 0 0 1-14.854 80.137l52.417 40.321C598.735 339.19 608 298.184 608 256c0-103.244-54.579-194.877-137.944-245.859-15.074-9.221-34.773-4.473-43.995 10.604-9.221 15.077-4.473 34.774 10.604 43.995zm-50.009 81.961C425.067 170.188 448 211.048 448 256c0 5.676-.39 11.301-1.128 16.849l55.604 42.772A191.69 191.69 0 0 0 512 256c0-68.547-36.15-129.777-91.957-163.901-15.076-9.22-34.774-4.471-43.994 10.607-9.22 15.078-4.471 34.775 10.607 43.995zM90.232 160H56c-13.255 0-24 10.745-24 24v144c0 13.255 10.745 24 24 24h102.059l88.97 88.951c15.028 15.028 40.971 4.467 40.971-16.97V312.129L90.232 160zm360.889 277.607c-1.205.871-2.403 1.75-3.627 2.599-14.522 10.072-18.129 30.01-8.057 44.532 10.076 14.528 30.016 18.125 44.531 8.057a289.026 289.026 0 0 0 19.578-14.861l-52.425-40.327zm-71.629-55.099c-1.263 7.875.389 16.229 5.294 23.3 6.216 8.96 16.185 13.765 26.322 13.765 4.387 0 8.8-.923 12.959-2.776l-44.575-34.289zm255.53 107.442c8.071-10.493 6.123-25.54-4.356-33.63L48.389 4.978c-10.506-8.082-25.574-6.116-33.656 4.39L4.978 22.05c-8.082 10.506-6.116 25.574 4.39 33.656l582.208 451.29c10.505 8.111 25.598 6.156 33.69-4.364l9.756-12.682z"
     />
</svg>
